<svg xmlns="http://www.w3.org/2000/svg" width="817.5" height="718.93" viewBox="0 0 817.5 718.93">
  <g>

    <g class="rocket-wrapper">
      <g class="rocket">

        <g opacity=".15">
          <path fill="rgb(255,255,255)" fill-rule="evenodd" d="M462.01680987 489.90753464s-5.29512622 19.82755873-9.17448461 53.13742113-4.3458085 54.6614863-4.3458085 54.6614863h50.70109916c.22270596 0-.68737227-29.9518079-4.82867611-54.6614863-4.83780688-28.86546278-11.10595506-53.13742113-11.10595506-53.13742113h-21.24617488z"/>
        </g>
        <g opacity=".15">
          <path fill="rgb(255,255,255)" fill-rule="evenodd" d="M309.9135124 483.17010293s-5.29512622 19.82755873-9.17448461 53.13742112c-3.87935839 33.3098624-4.3458085 54.6614863-4.3458085 54.6614863h50.70109916c.22270596 0-.68737227-29.9518079-4.82867611-54.6614863-4.83780688-28.86546278-11.10595506-53.13742112-11.10595506-53.13742112H309.9135124z"/>
        </g>
        <path fill="rgb(255,205,81)" fill-opacity=".3" fill-rule="evenodd" d="M377.99784555 491.83251513s-70.2615474 33.00623044-54.34960283 96.03351749c11.53318526 45.68300087 46.37879742 97.05797442 64.68352876 121.87394232 6.94968571 9.42178142 16.32003555 9.1170813 23.44971745-1.09031323 16.5662819-23.71754838 45.68357291-70.70079833 56.23742599-121.01850645 15.09594741-71.97309553-51.8745281-95.79864013-51.8745281-95.79864013h-38.14654127z"/>
        <path fill="rgb(255,205,81)" fill-opacity=".3" fill-rule="evenodd" d="M377.99784555 491.83251513s-14.37034745 12.0704603-8.55130987 35.11969544C375.26557327 550.00144571 397.31255 577.0129018 397.31255 577.0129018s19.41007306-23.82584698 24.93069846-50.14658646-7.06459685-35.03380021-7.06459685-35.03380021h-37.18080605z"/>
        <path class="flare-inner" fill="rgb(252,216,142)" fill-rule="evenodd" d="M377.51497794 490.39020217v145.33602698l5.31154372 4.3312061 18.83183683-9.14365733 13.0374255-22.61852075v-117.905055h-37.18080605z"/>
        <path fill="rgb(255,205,81)" fill-rule="evenodd" d="M388.13806538 489.90895705v148.2234977l15.93463117-10.58739269V489.90895705h-15.93463117z"/>
        <path class="flare" fill="rgb(254,254,254)" fill-rule="evenodd" d="M311.36211523 488.46522168v63.04311104s-11.22073252.0017999-13.5202931 10.10614757c-1.30299459 5.72540264 3.30211094 9.03833919 5.31154371 11.54988294.38892045.4861027 1.11531941 2.60204214.02180073 3.39953771-1.79561375 1.30952861-6.12098172 1.5213844-7.31507406 3.30649835-1.94155993 2.90254411-.67277521 8.21256274-.91547605 8.21256274-.24566777 0-6.9182993 2.12082099-9.55629924 7.75046186-1.9594275 4.18152896-1.53545956 10.44361325-1.2355317 13.11052923.08995004.79982305-1.46993271 1.32503588-1.46993271 1.32503588l-1.80926331.05382639s-1.39492267-.7780177-2.04952015-2.09038987c-2.85088412-5.71560542-12.1712509-20.95635792-30.23831917-20.2787115-22.21548573.83324224-28.96848104 24.19150413-28.96848104 24.19150413s-15.51119103-7.18364344-30.13338803.54900319c-14.622197 7.73264662-17.18763785 24.47574317-17.18763785 24.47574317s-3.06944028-1.02582015-5.63297944.31216082C164.09972465 638.82010629 164 641.5 164 641.5s-15.72030639-7.22017168-28 2.40739623C123.72030639 653.53496413 127 672.5 127 672.5s-3.9013668-1.3175-6.5 1-1.90981616 6.5-1.90981616 6.5-12.2667239-8.30766906-22.67483188-3.67266906C85.50724396 680.96233094 84.90698646 695 84.90698646 695s-7.34115902-4.99597733-15.9325986-2.58659552c-8.59143958 2.4093818-11.87141299 10.38394765-11.87141299 10.38394765s-11.81046748-4.42068417-29.45528672.52762584C10.00286892 708.273288 0 718.8113004 0 718.8113004h817.5s-17.53450003-10.87835912-37.0657872-13.8052504c-17.17396867-2.57363168-36.64876626 2.75864184-36.64876626 2.75864184S740 703.5 733.94025492 702.87004259C727.4763314 702.19806769 722 704.5 722 704.5s1-13-12.5-18.5c-14.9747545-6.10082591-24.6150642 2.20394124-24.6150642 2.20394124S683.8849358 664 667.5 654c-14.59779362-8.90927728-36.5-2-36.5-2s-.9241534-6.86017835-6.55814413-7.85851294C618 643 614.5 647.5 614.5 647.5s-1.5-31.02357575-37.00794276-32.65418834c-35.50794276-1.6306126-40.63076766 29.06158457-40.63076766 29.06158457s-.82165596-4.42186445-4.25339607-8.73430199c-3.43174012-4.31243754-6.85255899-5.22180656-6.85255899-5.22180656s9.38958574-18.08672402-1.44860283-32.72466833c-10.83818857-14.63794431-29.45492427-9.14365732-29.45492427-9.14365732s1.34970873-4.91409747-.29155828-9.5239445c-1.641267-4.60984703-5.01998544-5.3946543-5.01998544-5.3946543s6.76014655-5.29369635 4.86616091-13.91522517c-1.89398564-8.62152882-11.14343986-7.74080534-11.14343986-7.74080534v-63.04311104h-20.76330727v73.14925861s-7.24301417-.96249024-8.38375075 5.25125288c-1.14073658 6.21374313 4.52080986 9.66734592 4.52080986 9.66734592s-5.94213294.49404344-7.73260604 4.80648098c-1.7904731 4.31243755 1.9381947 9.14962757 1.9381947 9.14962757s-8.13796277.62253165-11.1220846 8.65258776c-2.24198073 6.03300804.35435202 12.42419718 1.46473239 15.40966836.36755843.98825153-.96688264 3.60788368-2.89720567 1.92498049-4.93921443-4.30612889-15.62780684-14.35747352-28.4336336-10.45892199-17.81054617 5.42216706-17.92165705 23.93378542-17.92165705 23.93378542s-2.92120962-.52482018-6.20374364 1.110932c-3.28253402 1.63575217-4.4193438 4.18276434-4.4193438 4.18276434s-7.69644816-9.49076743-17.39484413-8.89594845c-9.69839596.59481897-13.9915506 10.82092894-13.9915506 10.82092894s.40263916-2.758194-.3433913-6.02969834c-.74603046-3.27150434-2.07094675-4.55769435-2.07094675-4.55769435s12.44880988-8.84612862 11.10595506-20.74250805c-1.34285483-11.89637943-15.45176356-17.75710174-15.45176356-17.75710174s4.1482417-6.50680395.26888332-14.09074584c-3.87935839-7.58394188-12.8234412-10.4527554-12.8234412-10.4527554v-75.0742391h-21.24617489z"/>

        <rect width="13.52" height="15.4" x="440.288" y="166.031" fill="rgb(100,108,119)"/>
        <rect width="13.52" height="15.4" x="336.954" y="166.031" fill="rgb(200,200,200)"/>
        <rect width="13.52" height="15.4" x="336.954" y="264.205" fill="rgb(200,200,200)"/>
        <rect width="13.52" height="15.4" x="441.254" y="264.205" fill="rgb(100,108,119)"/>
        <path fill="rgb(151,110,174)" fill-rule="evenodd" d="M453.80806048 338.7979886V141.9733794s.26407307-6.02026437.91024252-9.2693432c1.03655939-5.21204334 3.05637897-13.21208762 6.54666301-19.53262441 2.92583047-5.29837083 6.9874029-7.72432894 11.33270829-7.72432894 4.5897357 0 8.31741995 4.14314615 10.98913801 9.10540258 5.52440277 10.26062725 6.436319 23.56628713 6.436319 23.56628713v233.8851295l-36.21507083-33.20591345z"/>
        <g opacity=".3">
          <rect width="36.215" height="3.85" x="453.808" y="181.431" fill="rgb(0,0,0)"/>
        </g>
        <g opacity=".3">
          <rect width="36.215" height="3.85" x="453.808" y="221.855" fill="rgb(0,0,0)"/>
        </g>
        <g opacity=".3">
          <rect width="36.215" height="3.85" x="453.808" y="264.205" fill="rgb(0,0,0)"/>
        </g>
        <g opacity=".3">
          <rect width="36.215" height="3.85" x="453.808" y="304.63" fill="rgb(0,0,0)"/>
        </g>
        <path fill="rgb(180,133,206)" fill-rule="evenodd" d="M337.43696623 338.74500998V141.92040077s-.25703113-6.02026436-.88596939-9.2693432c-1.0089178-5.21204334-2.97487553-13.21208761-6.37208533-19.53262441-2.84780832-5.29837082-6.80107216-7.72432894-11.03050273-7.72432894-4.46734275 0-8.0956221 4.14314615-10.69609434 9.10540258-5.37708536 10.26062725-6.26468382 23.56628713-6.26468382 23.56628713v233.8851295l35.2493356-33.20591345z"/>
        <g opacity=".3">
          <rect width="35.249" height="3.85" x="302.188" y="181.378" fill="rgb(0,0,0)"/>
        </g>
        <g opacity=".3">
          <rect width="35.249" height="3.85" x="302.188" y="221.802" fill="rgb(0,0,0)"/>
        </g>
        <g opacity=".3">
          <rect width="35.732" height="3.85" x="302.188" y="264.152" fill="rgb(0,0,0)"/>
        </g>
        <g opacity=".3">
          <rect width="35.249" height="3.85" x="302.188" y="304.577" fill="rgb(0,0,0)"/>
        </g>
        <path fill="rgb(24,88,145)" fill-rule="evenodd" d="M350.47439172 324.84188005V68.81947492s-.04621896-24.95234317 13.97915367-46.36582614C371.33643309 11.9450796 383.31029392.25756448 395.37545237.00439289c12.52021188-.26272029 25.1389593 11.30516563 32.28144422 22.21007942 14.02537263 21.41348297 13.596606 46.6050026 13.596606 46.6050026v256.02240514h-90.77911087z"/>
        <g opacity=".15">
          <path fill="rgb(0,0,0)" fill-rule="evenodd" d="M394.89821194 0v318.58427105h46.35529066V67.85556226s-1.44860284-28.87470734-14.76268563-47.31014498C411.70245827.0686132 394.89821194 0 394.89821194 0z"/>
        </g>
        <g opacity=".3">
          <rect width="90.779" height="2.887" x="350.474" y="91.919" fill="rgb(0,0,0)"/>
        </g>
        <g opacity=".3">
          <rect width="90.779" height="2.887" x="350.474" y="161.219" fill="rgb(0,0,0)"/>
        </g>
        <g opacity=".3">
          <rect width="90.779" height="2.887" x="350.474" y="223.78" fill="rgb(0,0,0)"/>
        </g>
        <g opacity=".3">
          <rect width="90.779" height="2.887" x="350.474" y="289.23" fill="rgb(0,0,0)"/>
        </g>
        <path fill="rgb(6,41,91)" fill-rule="evenodd" d="M364.96042005 206.45557993s.43368363-11.32917145 1.73016197-26.96862914c.84736566-10.22179768 1.2239736-22.88594795 4.9983413-33.34813549 9.54918987-26.46944422 24.17502384-25.34486716 24.17502384-25.34486716s15.54858897-1.10658747 25.54539712 25.36285676c3.99442577 10.57639885 4.79808351 23.00411523 5.62652155 33.3029984 1.24488529 15.47602543 1.18021127 26.99577663 1.18021127 26.99577663l4.3458085 84.21789643s5.9948741 18.07598848 23.15357466 41.4226331c17.15870056 23.34664463 42.41940282 37.83413443 52.26700488 46.45900951 5.38272713 4.71438111 13.95288202 14.72382359 15.45624179 25.1913593.6696068 4.66231255 1.35716573 10.2147597-.17757324 13.89938621-1.32340775 3.17725908-4.77667197 4.81581021-5.68506233 5.06555864-4.32697666 1.18963795-8.23823561-.17678321-8.23823561-.17678321H285.28726424s-5.05216636 1.26735685-9.6775552.0777189c-4.62538885-1.18963794-5.29134074-3.92767988-5.29134074-3.92767988s-2.0596409-3.52823078-2.0596409-9.62512523c0-6.09689446 2.80469088-15.06787725 8.96612113-22.49617623 6.16143025-7.428299 13.03342349-11.6495511 13.03342349-11.6495511s6.07126019-3.67743944 14.30007756-9.70758135c7.42352469-5.44001713 16.4720268-12.55137 26.71206625-24.89689232 21.59090283-26.03026815 30.79279856-49.63587634 30.79279856-49.63587634l2.89720566-84.21789643z"/>
        <path fill="rgb(29,52,63)" fill-rule="evenodd" d="M287.21873468 423.49713015s-7.4288925 6.91886456-9.14282344 12.0433804c-.9203228 2.75169126 3.3484121 5.28144401 3.3484121 5.28144401l89.33050805 17.3248244v25.98723662s.01553294 2.5151709 1.80600605 5.04315153c1.7904731 2.52798063 3.98840528 3.13801555 3.98840528 3.13801555h40.07801171s2.22167388-.61003492 3.8629409-3.13801555c1.641267-2.52798062 1.44860282-5.04315153 1.44860282-5.04315153v-25.98723661l87.3990376-17.32482441s6.72078661-1.41140597 5.97475615-6.76477671c-.74603046-5.35337074-8.3890942-10.5600477-8.3890942-10.5600477H287.21873467z"/>
        <path fill="rgb(241,242,244)" fill-rule="evenodd" d="M357.56528645 322.87344306c-2.98479267 11.45589189-10.72214922 22.24005278-15.72455168 28.5966849-11.93648734 15.16788378-22.75273776 20.5337741-22.75273776 20.5337741s-12.98949588 8.5714717-23.13551012 16.8989373-13.93504916 18.54263655-12.29378215 27.0188069c1.64126701 8.47617034 7.90583844 10.46295463 7.90583844 10.46295463h211.49601363s7.84910205-4.8406192 7.84910205-15.39865593c0-3.5457538-2.34851999-11.68078645-7.93724554-17.71952815-4.81594058-5.20373042-14.76740039-11.3704773-23.89675335-18.11808983-11.82250376-8.73815207-23.18457618-18.31415285-29.7515926-26.62120545-4.60576437-5.82613538-10.21457888-15.42550716-12.68329473-25.71642394-3.76935853-15.7126851-7.45896032-99.03029325-7.45896032-99.03029325h-64.70425988s-2.7748928 83.21344335-6.912266 99.09303872z"/>
        <path fill="rgb(180,133,206)" fill-rule="evenodd" d="M303.15336584 444.67191554v15.88092303s-.60188742 4.74386673-1.75105481 9.14740837c-.59139868 2.2662048-1.37456878 4.4132093-1.88100327 6.03424145-.37347887 1.19545816-.06051598 3.83678852.24701438 4.34633065 2.37449822 3.93426805 8.21371981 3.0907063 8.21371981 3.0907063h27.52345383s6.57579661 1.00369583 8.20874939-4.87197237c.65241814-2.34752196-.95173297-5.3958991-1.77006417-8.51801375-1.22988929-4.69229992-2.09287672-9.22870065-2.09287672-9.22870065v-8.6622462l-36.69793844-7.21867683z"/>
        <path fill="rgb(66,73,83)" fill-rule="evenodd" d="M308.46490957 483.17152533s-1.77371632 1.4706851-1.77371632 3.84996098c0 2.37927589 1.77371632 3.84996098 1.77371632 3.84996098h26.074851s1.67689924-1.47021855 1.67689924-3.84949443c0-2.37927589-1.67689925-3.85042753-1.67689925-3.85042753h-26.074851z"/>
        <path fill="rgb(151,110,174)" fill-rule="evenodd" d="M491.6240805 444.19067042v15.88092303s.60188742 4.74386672 1.75105481 9.14740836c.59139868 2.26620481 1.37456878 4.41320931 1.88100327 6.03424145.37347887 1.19545817.06051598 3.83678853-.24701438 4.34633065-2.37449822 3.93426806-8.21371981 3.0907063-8.21371981 3.0907063h-27.52345383s-6.57579661 1.00369584-8.20874939-4.87197236c-.65241814-2.34752196.95173297-5.3958991 1.77006417-8.51801375 1.22988929-4.69229992 2.09287672-9.22870065 2.09287672-9.22870065v-8.6622462l36.69793844-7.21867683z"/>
        <path fill="rgb(66,73,83)" fill-rule="evenodd" d="M460.02483326 482.69028021s-1.77371631 1.4706851-1.77371631 3.84996098c0 2.37927589 1.7737163 3.84996098 1.7737163 3.84996098h26.074851s1.67689925-1.47021855 1.67689925-3.84949443c0-2.37927589-1.67689925-3.85042753-1.67689925-3.85042753h-26.074851z"/>
        <path fill="rgb(254,254,254)" fill-rule="evenodd" d="M434.01048843 472.10288752h-73.39587687s-2.3519223.11338682-4.44080759-1.3736606c-2.08888528-1.48704744-2.31933897-3.43879063-2.31933897-3.43879063v-22.61852075s.64101961-5.38604603 2.27063445-10.6064933c1.10618445-3.5436457 2.61223984-7.0312523 3.56780509-9.11209873.55305422-1.20433525.94627437-3.26880001.9914907-5.71966419.52177315-28.28171727 3.7931572-205.6361593 3.7931572-206.5218928 0-.53579526 1.38376579-35.09160233 10.14021984-55.8244342 3.62090391-8.57328682 12.48869807-20.34646112 21.71688107-20.84933437 8.54421922-.46560186 17.41802903 9.55376424 22.22407153 20.84933437 9.99680815 23.49534937 10.14021983 55.8244342 10.14021983 55.8244342l4.78458467 208.38379688s.51404374 2.61838429 1.20374593 3.85999487c1.31981162 2.37594154 2.01020428 6.26119738 3.186154 11.53519019 1.79047311 8.03005611 1.44860284 12.51237318 1.44860284 12.51237318v18.28731465s.13503812 1.81908818-1.5062289 3.30613561c-1.641267 1.48704743-3.80531482 1.50631562-3.80531482 1.50631562z"/>
        <g opacity=".1">
          <path fill="rgb(0,0,0)" fill-rule="evenodd" d="M396.34681477 136.19379206v280.56590638l42.97521738 41.38708053v-11.54988294s-.16174516-4.62851636-1.95221826-12.50986773-3.84219307-12.99612376-3.84219307-12.99612376l-4.82867611-212.71034412s-.20106194-29.01972696-10.19787009-51.47414312c-9.99680815-22.45441617-22.15425985-20.71262524-22.15425985-20.71262524z"/>
        </g>
        <g>
          <path fill="rgb(33,133,220)" fill-rule="evenodd" d="M385.3080413 388.64542708l11.40642467 6.92360092 11.75442526-7.0450676 5.14946816 3.15813375-16.90389342 10.08173467-16.69697415-9.96026799 5.29054948-3.15813375z"/>
          <path fill="rgb(113,220,248)" fill-rule="evenodd" d="M396.89939593 346.49648815l15.33166382 9.11000121-5.17298171 3.15813375-10.1586821-6.16428155-10.18054145 6.16428155-5.1729817-3.15813375 15.35352314-9.1100012z"/>
          <path fill="rgb(22,176,251)" fill-rule="evenodd" d="M417.52160645 358.64312744l-20.73461915 12.24456787-20.29650878-12.1231079-5.17297364 3.03668212 8.93518067 5.34454346-10.46356201 6.19476318 10.463562 6.07336426-10.463562 6.10046387 5.17297363 3.13098144 10.34594726-6.19476318 11.4064331 6.80212402 11.75445558-6.92364502 10.34594726 6.19482422 5.05541992-3.00952148-10.34594726-6.3433838 10.34594726-6.07336425-10.11083984-6.19482422 8.34735107-5.46594238-4.58520507-2.7937622zm-32.21356202 11.66082764l-5.05541992 2.91522217 16.46185303 9.83880615 16.92736816-9.96026611-5.17297363-3.1581421-11.7567749 7.04504395-11.40405274-6.68066406z"/>
        </g>
        <rect width="56.978" height="1.925" x="367.858" y="204.531" fill="rgb(200,200,200)"/>
        <rect width="56.978" height="1.925" x="367.858" y="250.73" fill="rgb(200,200,200)"/>
        <rect width="60.841" height="1.925" x="365.926" y="307.517" fill="rgb(200,200,200)"/>
        <path fill="rgb(66,73,83)" fill-rule="evenodd" d="M398.27828521 168.43721526v7.21867684s4.30780309.07026179 9.6792224.96249024c5.3714193.89222846 7.7040116 1.9249805 7.7040116 1.9249805s2.21791922-.1677744 2.8147436-1.95223131c.59682436-1.78445692-.88327315-3.82271017-.88327315-3.82271017s-3.66723838-2.13306835-9.63548206-3.47141103c-5.96824367-1.33834269-9.67922239-.85979507-9.67922239-.85979507z"/>
        <path fill="rgb(66,73,83)" fill-rule="evenodd" d="M393.4496091 168.43721526v6.73743172s-5.47044049.25471535-9.56939476 1.16253343c-4.56728013 1.01154079-7.81383923 2.68742755-7.81383923 2.68742755s-1.91532689.00770528-1.91532689-1.92545638 1.91532689-4.33073022 1.91532689-4.33073022 3.62092502-2.16320632 7.7702409-3.19704975c4.52592123-1.1276784 9.6129931-1.13415635 9.6129931-1.13415635z"/>
        <g opacity=".2">
          <path fill="rgb(0,0,0)" fill-rule="evenodd" d="M400.20975566 420.608237l39.1122765 37.53711956v10.10756998s-.30153985 1.45859205-2.09201295 2.64822999-3.7023984 1.20173099-3.7023984 1.20173099h-33.31786515V420.608237z"/>
        </g>
        <path fill="rgb(200,200,200)" fill-rule="evenodd" d="M396.82968238 415.31596307v82.77416106h-1.9315091s-1.03620718-.0696888-1.93143179-.96249025c-.8952246-.89280144-.96573522-3.36871585-.96573522-3.36871585V418.6775157s-.15051218-1.51365797 1.34154874-2.55237773c1.49206091-1.03871977 3.48712737-.8091749 3.48712737-.8091749z"/>
        <path fill="rgb(200,200,200)" fill-rule="evenodd" d="M396.82968238 415.31596307s1.76510454-.01076892 2.95875328.8805867c1.19364873.89135563.90418761 2.00405933.90418761 2.00405933v76.03955405s.13485266 1.22704346-.46194408 2.4166814c-.59679673 1.18963795-1.46943695 1.43327958-1.46943695 1.43327958h-1.93155986v-82.77416106z"/>

      </g>
    </g>
    <path fill="rgb(229,232,237)" fill-rule="evenodd" d="M136 718.930075S139.86295077 694.91367066 161 682c21.13704923-12.91367067 45 0 45 0s-.19995015-7.48551622 4.43504985-10.11201622C215.07004985 669.26148378 221 673.5 221 673.5s-1.67148371-13.3296812 7.28951629-20.2821812C237.25051629 646.2653188 250 651 250 651s-3.09628902-17.8899547 12.5-24c15.59628902-6.1100453 24 7.42750583 24 7.42750583S292.95420256 611.52966163 316 618s17.09115773 30.256967 17.09115773 30.256967 16.73940685-12.56685192 32.85366477-6.76736695c16.11425791 5.79948497 19.29603722 25.53592673 19.29603722 25.53592673s6.30817421-6.41393312 17.349425-7.90098055c11.0412508-1.48704743 18.38277821 3.08852932 18.38277821 3.08852932s-8.87694082-21.96840254 15.11766784-32.39960922c23.99460865-10.43120667 38.48063699 9.78108847 38.48063699 9.78108847s14.24535628-12.22914319 36.5776024-5.16704897C533.4812163 641.48960005 534.5 667.25074527 534.5 667.25074527s18.28060533-8.05692679 34.34860533.05409292C584.91660533 675.4158579 586.5 693.5 586.5 693.5c.03654798.09219711 4.059197-3.70060375 8.4465984-2.29687088C599 692.5 600 697 600 697c4.33553564-1.79685635 21.94399745-8.36712804 37.38791652-3.21229505C656 700 665.5 718.930075 665.5 718.930075h-182H136z"/>
  </g>
  <style>
    .rocket-wrapper {
      transform: translateY(700px);
      animation: move_up 6s ease forwards;
    }

    .rocket {
    animation: move_rocket 2s ease infinite;
    }

    .flare {
      opacity: 1;
      animation: flare_up 0.5s ease infinite;
    }

    .flare-inner {
      opacity: 1;
      animation: flare_up 0.5s ease infinite;
      fill: rgba(255,205,81, 1);
    }

    @keyframes move_up {
      0% {
          transform: translateY(700px);
      }
      100% {
          transform: translateY(0px);
      }
  }

  @keyframes flare_up {
      0% {
          opacity: 1;
      }
      100% {
          opacity: 0.5;
      }
  }

  @keyframes move_rocket {
        0% {
            transform: translateY(0px);
        }
        50% {
            transform: translateY(20px);
        }
        100% {
            transform: translateY(00px);
        }
    }
  </style>
</svg>
